[gd_scene load_steps=3 format=2]

[ext_resource path="res://interface/Theme.tres" type="Theme" id=1]
[ext_resource path="res://interface/audio_slider/AudioSlider.gd" type="Script" id=2]

[node name="AudioSlider" type="HBoxContainer"]
anchor_right = 1.0
anchor_bottom = 1.0
margin_right = -50.0
margin_bottom = -304.0
rect_min_size = Vector2( 130, 16 )
theme = ExtResource( 1 )
script = ExtResource( 2 )

[node name="Name" type="Label" parent="."]
margin_top = 1.0
margin_right = 25.0
margin_bottom = 14.0
rect_min_size = Vector2( 25, 0 )
text = "Name"

[node name="HSlider" type="HSlider" parent="."]
margin_left = 29.0
margin_right = 111.0
margin_bottom = 16.0
size_flags_horizontal = 3
size_flags_vertical = 3
step = 5.0
rounded = true

[node name="Value" type="Label" parent="."]
margin_left = 115.0
margin_top = 1.0
margin_right = 130.0
margin_bottom = 14.0
rect_min_size = Vector2( 15, 0 )
text = "100"
[connection signal="value_changed" from="HSlider" to="." method="_on_HSlider_value_changed"]
