[gd_scene load_steps=6 format=2]

[ext_resource path="res://projectile/Missile.gd" type="Script" id=1]
[ext_resource path="res://projectile/projectiles.png" type="Texture" id=2]

[sub_resource type="RectangleShape2D" id=1]
extents = Vector2( 3, 3 )

[sub_resource type="CircleShape2D" id=2]
radius = 19.0

[sub_resource type="Curve" id=3]
_data = [ Vector2( 0, 1 ), 0.0, 0.0, 0, 0, Vector2( 0.712322, 1 ), 0.0, 0.0, 0, 0, Vector2( 1, 0 ), 0.0, 0.0, 0, 0 ]

[node name="Missile" type="KinematicBody2D" groups=[
"rewind",
]]
modulate = Color( 0.901961, 0.854902, 0.160784, 1 )
collision_layer = 16
collision_mask = 5
script = ExtResource( 1 )
__meta__ = {
"_edit_group_": true
}

[node name="CollisionShape2D" type="CollisionShape2D" parent="."]
shape = SubResource( 1 )

[node name="Sprite" type="Sprite" parent="."]
texture = ExtResource( 2 )
region_enabled = true
region_rect = Rect2( 8, 0, 8, 8 )

[node name="Search" type="Area2D" parent="."]
collision_layer = 0
collision_mask = 4

[node name="CollisionShape2D" type="CollisionShape2D" parent="Search"]
shape = SubResource( 2 )

[node name="Particles2D" type="CPUParticles2D" parent="."]
show_behind_parent = true
amount = 16
lifetime = 3.0
local_coords = false
gravity = Vector2( 0, 0 )
angle = 360.0
angle_random = 1.0
scale_amount = 3.0
scale_amount_curve = SubResource( 3 )

[node name="VisibilityNotifier2D" type="VisibilityNotifier2D" parent="."]
rect = Rect2( -2, -2, 4, 4 )
[connection signal="body_entered" from="Search" to="." method="_on_Search_body_entered"]
[connection signal="body_exited" from="Search" to="." method="_on_Search_body_exited"]
[connection signal="screen_exited" from="VisibilityNotifier2D" to="." method="_on_VisibilityNotifier2D_screen_exited"]
